ElenLabs/Lab5/Files/simulation/qsim/Lab05.msim.vcd
$comment
	File created using the following command:
		vcd file Lab05.msim.vcd -direction
$end
$date
	Wed Oct 29 16:21:50 2014
$end
$version
	ModelSim Version 10.1d
$end
$timescale
	1ps
$end
$scope module parta_vlg_vec_tst $end
$var reg 1 ! SW0 $end
$var reg 1 " SW1 $end
$var reg 1 # SW2 $end
$var reg 1 $ SW3 $end
$var reg 1 % SW4 $end
$var reg 1 & SW5 $end
$var wire 1 ' LED0 $end
$var wire 1 ( sampler $end
$scope module i1 $end
$var wire 1 ) gnd $end
$var wire 1 * vcc $end
$var wire 1 + unknown $end
$var tri1 1 , devclrn $end
$var tri1 1 - devpor $end
$var tri1 1 . devoe $end
$var wire 1 / SW4~input_o $end
$var wire 1 0 LED0~output_o $end
$var wire 1 1 SW1~input_o $end
$var wire 1 2 SW5~input_o $end
$var wire 1 3 SW0~input_o $end
$var wire 1 4 SW3~input_o $end
$var wire 1 5 SW2~input_o $end
$var wire 1 6 inst0|inst2|inst2~0_combout $end
$var wire 1 7 inst0|inst2|inst2~1_combout $end
$upscope $end
$upscope $end
$enddefinitions $end
#0
$dumpvars
0!
0"
0#
0$
0%
0&
0'
x(
0)
1*
x+
1,
1-
1.
0/
00
01
02
03
04
05
06
07
$end
#10000
1$
14
0(
16
17
10
1'
#20000
1#
0$
15
04
1(
06
07
00
0'
#30000
1$
14
0(
16
17
10
1'
#40000
1"
0#
0$
11
05
04
1(
06
07
00
0'
#50000
1$
14
0(
16
17
10
1'
#60000
1#
0$
15
04
1(
06
07
00
0'
#70000
1$
14
0(
16
17
10
1'
#80000
1!
0"
0#
0$
13
01
05
04
1(
06
07
00
0'
#90000
1$
14
0(
16
17
10
1'
#100000
1#
0$
15
04
1(
06
07
00
0'
#110000
1$
14
0(
16
17
10
1'
#120000
1"
0#
0$
11
05
04
1(
06
07
00
0'
#130000
1$
14
0(
16
17
10
1'
#140000
1#
0$
15
04
1(
06
07
00
0'
#150000
1$
14
0(
16
17
10
1'
#160000
1&
0!
0"
0#
0$
12
03
01
05
04
1(
06
07
00
0'
#170000
1$
14
0(
#180000
1#
0$
15
04
1(
#190000
1$
14
0(
#200000
1"
0#
0$
11
05
04
1(
17
10
1'
#210000
1$
14
0(
#220000
1#
0$
15
04
1(
#230000
1$
14
0(
#240000
1!
0"
0#
0$
13
01
05
04
1(
07
00
0'
#250000
1$
14
0(
#260000
1#
0$
15
04
1(
#270000
1$
14
0(
#280000
1"
0#
0$
11
05
04
1(
17
10
1'
#290000
1$
14
0(
#300000
1#
0$
15
04
1(
#310000
1$
14
0(
#320000
1%
0&
0!
0"
0#
0$
1/
02
03
01
05
04
1(
07
00
0'
#330000
1$
14
0(
#340000
1#
0$
15
04
1(
16
17
10
1'
#350000
1$
14
0(
#360000
1"
0#
0$
11
05
04
1(
06
07
00
0'
#370000
1$
14
0(
#380000
1#
0$
15
04
1(
16
17
10
1'
#390000
1$
14
0(
#400000
1!
0"
0#
0$
13
01
05
04
1(
06
07
00
0'
#410000
1$
14
0(
#420000
1#
0$
15
04
1(
16
17
10
1'
#430000
1$
14
0(
#440000
1"
0#
0$
11
05
04
1(
06
07
00
0'
#450000
1$
14
0(
#460000
1#
0$
15
04
1(
16
17
10
1'
#470000
1$
14
0(
#480000
1&
0!
0"
0#
0$
12
03
01
05
04
1(
07
00
0'
#490000
1$
14
0(
#500000
1#
0$
15
04
1(
#510000
1$
14
0(
#520000
1"
0#
0$
11
05
04
1(
#530000
1$
14
0(
#540000
1#
0$
15
04
1(
#550000
1$
14
0(
#560000
1!
0"
0#
0$
13
01
05
04
1(
17
10
1'
#570000
1$
14
0(
#580000
1#
0$
15
04
1(
#590000
1$
14
0(
#600000
1"
0#
0$
11
05
04
1(
#610000
1$
14
0(
#620000
1#
0$
15
04
1(
#630000
1$
14
0(
#640000
0%
0&
0!
0"
0#
0$
0/
02
03
01
05
04
1(
06
07
00
0'
#650000
1$
14
0(
16
17
10
1'
#660000
1#
0$
15
04
1(
06
07
00
0'
#670000
1$
14
0(
16
17
10
1'
#680000
1"
0#
0$
11
05
04
1(
06
07
00
0'
#690000
1$
14
0(
16
17
10
1'
#700000
1#
0$
15
04
1(
06
07
00
0'
#710000
1$
14
0(
16
17
10
1'
#720000
1!
0"
0#
0$
13
01
05
04
1(
06
07
00
0'
#730000
1$
14
0(
16
17
10
1'
#740000
1#
0$
15
04
1(
06
07
00
0'
#750000
1$
14
0(
16
17
10
1'
#760000
1"
0#
0$
11
05
04
1(
06
07
00
0'
#770000
1$
14
0(
16
17
10
1'
#780000
1#
0$
15
04
1(
06
07
00
0'
#790000
1$
14
0(
16
17
10
1'
#800000
1&
0!
0"
0#
0$
12
03
01
05
04
1(
06
07
00
0'
#810000
1$
14
0(
#820000
1#
0$
15
04
1(
#830000
1$
14
0(
#840000
1"
0#
0$
11
05
04
1(
17
10
1'
#850000
1$
14
0(
#860000
1#
0$
15
04
1(
#870000
1$
14
0(
#880000
1!
0"
0#
0$
13
01
05
04
1(
07
00
0'
#890000
1$
14
0(
#900000
1#
0$
15
04
1(
#910000
1$
14
0(
#920000
1"
0#
0$
11
05
04
1(
17
10
1'
#930000
1$
14
0(
#940000
1#
0$
15
04
1(
#950000
1$
14
0(
#960000
1%
0&
0!
0"
0#
0$
1/
02
03
01
05
04
1(
07
00
0'
#970000
1$
14
0(
#980000
1#
0$
15
04
1(
16
17
10
1'
#990000
1$
14
0(
